{
  "project_info": {
    "project_number": "83818751901",
    "firebase_url": "https://navigo-66c55.firebaseio.com",
    "project_id": "navigo-66c55",
    "storage_bucket": "navigo-66c55.appspot.com"
  },
  "client": [
    {
      "client_info": {
        "mobilesdk_app_id": "1:83818751901:android:2e776cf4a39a2416",
        "android_client_info": {
          "package_name": "com.example.hp.navigo"
        }
      },
      "oauth_client": [
        {
          "client_id": "83818751901-3j3k6ujpmnbign26hg4s87mdgird92q7.apps.googleusercontent.com",
          "client_type": 1,
          "android_info": {
            "package_name": "com.example.hp.navigo",
            "certificate_hash": "90245a6a0b78a11d81caa136d2a885d1f44ba05b"
          }
        },
        {
          "client_id": "83818751901-p4q0rhfthdak291p90laigllodppn146.apps.googleusercontent.com",
          "client_type": 3
        }
      ],
      "api_key": [
        {
          "current_key": "AIzaSyAtHVFJiPOmhW1QbXUlVTDC8Hov3NgdVfo"
        }
      ],
      "services": {
        "appinvite_service": {
          "other_platform_oauth_client": [
            {
              "client_id": "83818751901-p4q0rhfthdak291p90laigllodppn146.apps.googleusercontent.com",
              "client_type": 3
            }
          ]
        }
      }
    },
    {
      "client_info": {
        "mobilesdk_app_id": "1:83818751901:android:c0d15a415077d784",
        "android_client_info": {
          "package_name": "com.example.hp.navigocaptain"
        }
      },
      "oauth_client": [
        {
          "client_id": "83818751901-lkaalfvdnbkpgjnj36shiote8klnt9ap.apps.googleusercontent.com",
          "client_type": 1,
          "android_info": {
            "package_name": "com.example.hp.navigocaptain",
            "certificate_hash": "90245a6a0b78a11d81caa136d2a885d1f44ba05b"
          }
        },
        {
          "client_id": "83818751901-p4q0rhfthdak291p90laigllodppn146.apps.googleusercontent.com",
          "client_type": 3
        }
      ],
      "api_key": [
        {
          "current_key": "AIzaSyAtHVFJiPOmhW1QbXUlVTDC8Hov3NgdVfo"
        }
      ],
      "services": {
        "appinvite_service": {
          "other_platform_oauth_client": [
            {
              "client_id": "83818751901-p4q0rhfthdak291p90laigllodppn146.apps.googleusercontent.com",
              "client_type": 3
            }
          ]
        }
      }
    }
  ],
  "configuration_version": "1"
}